{"count":3002,"next":"http://freesound.org/apiv2/search/text/?&query=dog&page=2&fields=id,url,download,previews,name,preview-lq","results":[{"id":392617,"url":"http://freesound.org/people/ScreamStudio/sounds/392617/","name":"Dog Toy","download":"https://freesound.org/apiv2/sounds/392617/download/","previews":{"preview-lq-ogg":"http://freesound.org/data/previews/392/392617_7383104-lq.ogg","preview-lq-mp3":"http://freesound.org/data/previews/392/392617_7383104-lq.mp3","preview-hq-ogg":"http://freesound.org/data/previews/392/392617_7383104-hq.ogg","preview-hq-mp3":"http://freesound.org/data/previews/392/392617_7383104-hq.mp3"}},{"id":327666,"url":"http://freesound.org/people/Juan_Merie_Venter/sounds/327666/","name":"Dog Bark.wav","download":"https://freesound.org/apiv2/sounds/327666/download/","previews":{"preview-lq-ogg":"http://freesound.org/data/previews/327/327666_5632380-lq.ogg","preview-lq-mp3":"http://freesound.org/data/previews/327/327666_5632380-lq.mp3","preview-hq-ogg":"http://freesound.org/data/previews/327/327666_5632380-hq.ogg","preview-hq-mp3":"http://freesound.org/data/previews/327/327666_5632380-hq.mp3"}},{"id":337101,"url":"http://freesound.org/people/ivolipa/sounds/337101/","name":"Group_of_Dogs_Barking.WAV","download":"https://freesound.org/apiv2/sounds/337101/download/","previews":{"preview-lq-ogg":"http://freesound.org/data/previews/337/337101_3474310-lq.ogg","preview-lq-mp3":"http://freesound.org/data/previews/337/337101_3474310-lq.mp3","preview-hq-ogg":"http://freesound.org/data/previews/337/337101_3474310-hq.ogg","preview-hq-mp3":"http://freesound.org/data/previews/337/337101_3474310-hq.mp3"}},{"id":413758,"url":"http://freesound.org/people/lala_davis554/sounds/413758/","name":"dogbarking.mp3","download":"https://freesound.org/apiv2/sounds/413758/download/","previews":{"preview-lq-ogg":"http://freesound.org/data/previews/413/413758_7958399-lq.ogg","preview-lq-mp3":"http://freesound.org/data/previews/413/413758_7958399-lq.mp3","preview-hq-ogg":"http://freesound.org/data/previews/413/413758_7958399-hq.ogg","preview-hq-mp3":"http://freesound.org/data/previews/413/413758_7958399-hq.mp3"}},{"id":276267,"url":"http://freesound.org/people/apolloaiello/sounds/276267/","name":"Mr Dog_01.wav","download":"https://freesound.org/apiv2/sounds/276267/download/","previews":{"preview-lq-ogg":"http://freesound.org/data/previews/276/276267_5284496-lq.ogg","preview-lq-mp3":"http://freesound.org/data/previews/276/276267_5284496-lq.mp3","preview-hq-ogg":"http://freesound.org/data/previews/276/276267_5284496-hq.ogg","preview-hq-mp3":"http://freesound.org/data/previews/276/276267_5284496-hq.mp3"}},{"id":406085,"url":"http://freesound.org/people/InspectorJ/sounds/406085/","name":"Dog Barking, Single, A.wav","download":"https://freesound.org/apiv2/sounds/406085/download/","previews":{"preview-lq-ogg":"http://freesound.org/data/previews/406/406085_5121236-lq.ogg","preview-lq-mp3":"http://freesound.org/data/previews/406/406085_5121236-lq.mp3","preview-hq-ogg":"http://freesound.org/data/previews/406/406085_5121236-hq.ogg","preview-hq-mp3":"http://freesound.org/data/previews/406/406085_5121236-hq.mp3"}},{"id":163459,"url":"http://freesound.org/people/LittleBigSounds/sounds/163459/","name":"LBS_FX DOG Small Alert Bark001.wav","download":"https://freesound.org/apiv2/sounds/163459/download/","previews":{"preview-lq-ogg":"http://freesound.org/data/previews/163/163459_2965892-lq.ogg","preview-lq-mp3":"http://freesound.org/data/previews/163/163459_2965892-lq.mp3","preview-hq-ogg":"http://freesound.org/data/previews/163/163459_2965892-hq.ogg","preview-hq-mp3":"http://freesound.org/data/previews/163/163459_2965892-hq.mp3"}},{"id":421810,"url":"http://freesound.org/people/lupalenzuela/sounds/421810/","name":"dogs_1.WAV","download":"https://freesound.org/apiv2/sounds/421810/download/","previews":{"preview-lq-ogg":"http://freesound.org/data/previews/421/421810_2286319-lq.ogg","preview-lq-mp3":"http://freesound.org/data/previews/421/421810_2286319-lq.mp3","preview-hq-ogg":"http://freesound.org/data/previews/421/421810_2286319-hq.ogg","preview-hq-mp3":"http://freesound.org/data/previews/421/421810_2286319-hq.mp3"}},{"id":188879,"url":"http://freesound.org/people/Suprasummun/sounds/188879/","name":"Dog Chewing Snack.wav","download":"https://freesound.org/apiv2/sounds/188879/download/","previews":{"preview-lq-ogg":"http://freesound.org/data/previews/188/188879_3370987-lq.ogg","preview-lq-mp3":"http://freesound.org/data/previews/188/188879_3370987-lq.mp3","preview-hq-ogg":"http://freesound.org/data/previews/188/188879_3370987-hq.ogg","preview-hq-mp3":"http://freesound.org/data/previews/188/188879_3370987-hq.mp3"}},{"id":321179,"url":"http://freesound.org/people/Jickle/sounds/321179/","name":"Small growling dog","download":"https://freesound.org/apiv2/sounds/321179/download/","previews":{"preview-lq-ogg":"http://freesound.org/data/previews/321/321179_5444324-lq.ogg","preview-lq-mp3":"http://freesound.org/data/previews/321/321179_5444324-lq.mp3","preview-hq-ogg":"http://freesound.org/data/previews/321/321179_5444324-hq.ogg","preview-hq-mp3":"http://freesound.org/data/previews/321/321179_5444324-hq.mp3"}},{"id":321178,"url":"http://freesound.org/people/Jickle/sounds/321178/","name":"Dog squeak toy","download":"https://freesound.org/apiv2/sounds/321178/download/","previews":{"preview-lq-ogg":"http://freesound.org/data/previews/321/321178_5444324-lq.ogg","preview-lq-mp3":"http://freesound.org/data/previews/321/321178_5444324-lq.mp3","preview-hq-ogg":"http://freesound.org/data/previews/321/321178_5444324-hq.ogg","preview-hq-mp3":"http://freesound.org/data/previews/321/321178_5444324-hq.mp3"}},{"id":180977,"url":"http://freesound.org/people/Suprasummun/sounds/180977/","name":"Barking Dog","download":"https://freesound.org/apiv2/sounds/180977/download/","previews":{"preview-lq-ogg":"http://freesound.org/data/previews/180/180977_3370987-lq.ogg","preview-lq-mp3":"http://freesound.org/data/previews/180/180977_3370987-lq.mp3","preview-hq-ogg":"http://freesound.org/data/previews/180/180977_3370987-hq.ogg","preview-hq-mp3":"http://freesound.org/data/previews/180/180977_3370987-hq.mp3"}},{"id":398728,"url":"http://freesound.org/people/Anthousai/sounds/398728/","name":"dog - scratch at door - front 02.wav","download":"https://freesound.org/apiv2/sounds/398728/download/","previews":{"preview-lq-ogg":"http://freesound.org/data/previews/398/398728_5923045-lq.ogg","preview-lq-mp3":"http://freesound.org/data/previews/398/398728_5923045-lq.mp3","preview-hq-ogg":"http://freesound.org/data/previews/398/398728_5923045-hq.ogg","preview-hq-mp3":"http://freesound.org/data/previews/398/398728_5923045-hq.mp3"}},{"id":398729,"url":"http://freesound.org/people/Anthousai/sounds/398729/","name":"dog - scratch at door - front 01.wav","download":"https://freesound.org/apiv2/sounds/398729/download/","previews":{"preview-lq-ogg":"http://freesound.org/data/previews/398/398729_5923045-lq.ogg","preview-lq-mp3":"http://freesound.org/data/previews/398/398729_5923045-lq.mp3","preview-hq-ogg":"http://freesound.org/data/previews/398/398729_5923045-hq.ogg","preview-hq-mp3":"http://freesound.org/data/previews/398/398729_5923045-hq.mp3"}},{"id":398727,"url":"http://freesound.org/people/Anthousai/sounds/398727/","name":"dog - scratch at door - front 03.wav","download":"https://freesound.org/apiv2/sounds/398727/download/","previews":{"preview-lq-ogg":"http://freesound.org/data/previews/398/398727_5923045-lq.ogg","preview-lq-mp3":"http://freesound.org/data/previews/398/398727_5923045-lq.mp3","preview-hq-ogg":"http://freesound.org/data/previews/398/398727_5923045-hq.ogg","preview-hq-mp3":"http://freesound.org/data/previews/398/398727_5923045-hq.mp3"}}],"previous":null}
